[<tr class="row-2 even">
<td class="column-1" colspan="4">Department Secretary</td>
</tr>, <tr class="row-3 odd">
<td class="column-1" colspan="4">Science Bldg 168</td>
</tr>, <tr class="row-4 even">
<td class="column-1" colspan="4">(860) 465-4510</td>
</tr>, <tr class="row-5 odd">
<td class="column-1" colspan="4"><a href="mailto:lebeauc@easternct.edu">lebeauc@easternct.edu</a></td>
</tr>, <tr class="row-6 even">
<td class="column-1" colspan="4"><a href=""></a></td>
</tr>, <tr class="row-7 odd">
<td class="column-1" colspan="5">Office Hours: Fall 2018</td>
</tr>, <tr class="row-8 even">
<td class="column-1">M</td><td class="column-2">T</td><td class="column-3">W</td><td class="column-4">Th</td><td class="column-5">F</td>
</tr>, <tr class="row-9 odd">
<td class="column-1">8:00am-12:00pm<br/>
1:00pm-5:00pm</td><td class="column-2">8:00am-12:00pm<br/>
1:00pm-5:00pm</td><td class="column-3">8:00am-12:00pm<br/>
1:00pm-5:00pm</td><td class="column-4">8:00am-12:00pm<br/>
1:00pm-5:00pm</td><td class="column-5">8:00am-12:00pm<br/>
1:00pm-5:00pm</td>
</tr>, <tr class="row-10 even">
<td class="column-1" colspan="5"></td>
</tr>]